Species;ID
Rhea americana;10001
Tinamus tao;10002
Tinamus solitarius;10003
Tinamus major;10004
Tinamus guttatus;10005
Crypturellus cinereus;10006
Crypturellus soui;10007
Crypturellus obsoletus;10008
Crypturellus undulatus;10009
Crypturellus strigulosus;10010
Crypturellus duidae;10011
Crypturellus erythropus;10012
Crypturellus noctivagus;10013
Crypturellus atrocapillus;10014
Crypturellus variegatus;10015
Crypturellus brevirostris;10016
Crypturellus bartletti;10017
Crypturellus parvirostris;10018
Crypturellus tataupa;10019
Rhynchotus rufescens;10020
Nothura boraquira;10021
Nothura minor;10022
Nothura maculosa;10023
Taoniscus nanus;10024
Anhima cornuta;10025
Chauna torquata;10026
Dendrocygna bicolor;10027
Dendrocygna viduata;10028
Dendrocygna autumnalis;10029
Cygnus melancoryphus;10030
Coscoroba coscoroba;10031
Chloephaga picta;11890
Neochen jubata;10032
Cairina moschata;10033
Sarkidiornis sylvicola;10034
Callonetta leucophrys;10035
Amazonetta brasiliensis;10036
Anas sibilatrix;10037
Anas flavirostris;10038
Anas acuta;10039
Anas georgica;10040
Anas bahamensis;10041
Anas versicolor;10042
Anas discors;10043
Anas cyanoptera;10044
Anas platalea;10045
Netta erythrophthalma;10046
Netta peposaca;10047
Mergus octosetaceus;10048
Heteronetta atricapilla;10049
Nomonyx dominicus;10050
Oxyura vittata;10051
Penelope marail;10056
Penelope superciliaris;10057
Penelope jacquacu;10058
Penelope obscura;10059
Penelope pileata;10060
Penelope ochrogaster;10061
Penelope jacucaca;10062
Aburria cumanensis;10063
Aburria cujubi;10064
Aburria jacutinga;10065
Ortalis canicollis;10052
Ortalis guttata;10053
Ortalis araucuan;11891
Ortalis squamata;11892
Ortalis motmot;10054
Ortalis superciliaris;10055
Nothocrax urumutum;10066
Crax alector;10070
Crax globulosa;10071
Crax fasciolata;10072
Crax blumenbachii;10073
Pauxi tomentosa;10067
Pauxi tuberosa;10068
Colinus cristatus;10074
Odontophorus gujanensis;10075
Odontophorus capueira;10076
Odontophorus stellatus;10077
Rollandia rolland;10078
Tachybaptus dominicus;10079
Podilymbus podiceps;10080
Podicephorus major;10081
Podiceps occipitalis;10082
Phoenicopterus ruber;10184
Phoenicopterus chilensis;10185
Phoenicoparrus andinus;10186
Phoenicoparrus jamesi;10187
Aptenodytes patagonicus;10083
Spheniscus magellanicus;10084
Eudyptes chrysolophus;10085
Eudyptes chrysocome;10086
Phoebetria fusca;10087
Phoebetria palpebrata;10088
Thalassarche chlororhynchos;10089
Thalassarche melanophris;10090
Thalassarche chrysostoma;10091
Thalassarche cauta;10092
Diomedea epomophora;10093
Diomedea sanfordi;10094
Diomedea exulans;10095
Diomedea dabbenena;10096
Macronectes giganteus;10097
Macronectes halli;10098
Fulmarus glacialoides;10099
Daption capense;10100
Lugensa brevirostris;10101
Pterodroma madeira;11893
Pterodroma deserta;11894
Pterodroma mollis;10102
Pterodroma incerta;10104
Pterodroma arminjoniana;10108
Halobaena caerulea;10109
Pachyptila vittata;10110
Pachyptila desolata;10111
Pachyptila belcheri;10112
Bulweria bulwerii;10113
Procellaria aequinoctialis;10115
Procellaria conspicillata;10116
Calonectris borealis;10117
Calonectris edwardsii;10118
Puffinus griseus;10119
Puffinus gravis;10121
Puffinus puffinus;10122
Puffinus lherminieri;10124
Fregetta grallaria;10125
Fregetta tropica;10126
Oceanites oceanicus;10127
Pelagodroma marina;10128
Oceanodroma leucorhoa;10130
Pelecanoides magellani;10131
Phaethon aethereus;10132
Phaethon rubricauda;10133
Phaethon lepturus;10134
Ciconia maguari;10181
Jabiru mycteria;10182
Mycteria americana;10183
Fregata magnificens;10144
Fregata minor;10145
Fregata ariel;10146
Morus capensis;10136
Morus serrator;10137
Sula dactylatra;10138
Sula sula;10139
Sula leucogaster;10140
Nannopterum brasilianus;10141
Leucocarbo bransfieldensis;10142
Anhinga anhinga;10143
Pelecanus occidentalis;10135
Tigrisoma lineatum;10147
Tigrisoma fasciatum;10148
Agamia agami;10149
Cochlearius cochlearius;10150
Zebrilus undulatus;10151
Botaurus pinnatus;10152
Ixobrychus exilis;10153
Ixobrychus involucris;10154
Nycticorax nycticorax;10155
Nyctanassa violacea;10156
Butorides striata;10157
Ardeola ralloides;10158
Bubulcus ibis;10159
Ardea cinerea;10160
Ardea herodias;10161
Ardea cocoi;10162
Ardea purpurea;10163
Ardea alba;10164
Syrigma sibilatrix;10165
Pilherodius pileatus;10166
Egretta tricolor;10167
Egretta gularis;10168
Egretta garzetta;10169
Egretta thula;10170
Egretta caerulea;10171
Eudocimus ruber;10172
Plegadis chihi;10173
Cercibis oxycerca;10174
Mesembrinibis cayennensis;10175
Phimosus infuscatus;10176
Theristicus caerulescens;10177
Theristicus caudatus;10178
Platalea leucorodia;10179
Platalea ajaja;10180
Cathartes aura;10188
Cathartes burrovianus;10189
Cathartes melambrotus;10190
Coragyps atratus;10191
Sarcoramphus papa;10192
Vultur gryphus;10193
Pandion haliaetus;10194
Leptodon cayanensis;10195
Leptodon forbesi;10196
Chondrohierax uncinatus;10197
Elanoides forficatus;10198
Gampsonyx swainsonii;10199
Elanus leucurus;10200
Harpagus bidentatus;10203
Harpagus diodon;10204
Circus cinereus;10207
Circus buffoni;10208
Milvus migrans;11971
Accipiter poliogaster;10209
Accipiter superciliosus;10210
Accipiter striatus;10211
Accipiter bicolor;10212
Ictinia mississippiensis;10205
Ictinia plumbea;10206
Busarellus nigricollis;10225
Rostrhamus sociabilis;10201
Helicolestes hamatus;10202
Geranospiza caerulescens;10213
Buteogallus schistaceus;10214
Buteogallus aequinoctialis;10221
Buteogallus anthracinus;10220
Heterospizias meridionalis;10223
Amadonastur lacernulatus;10217
Urubitinga urubitinga;10222
Urubitinga coronata;10224
Rupornis magnirostris;10228
Parabuteo unicinctus;10226
Parabuteo leucorrhous;10227
Geranoaetus albicaudatus;10229
Geranoaetus melanoleucus;10231
Geranoaetus polyosoma;10230
Pseudastur albicollis;10218
Pseudastur polionotus;10219
Leucopternis melanops;10215
Leucopternis kuhli;10216
Buteo nitidus;10232
Buteo platypterus;10233
Buteo brachyurus;10235
Buteo swainsoni;10234
Buteo albonotatus;10236
Morphnus guianensis;10237
Harpia harpyja;10238
Spizaetus tyrannus;10239
Spizaetus melanoleucus;10240
Spizaetus ornatus;10241
Eurypyga helias;10300
Aramus guarauna;10263
Psophia crepitans;10264
Psophia ochroptera;11896
Psophia leucoptera;10265
Psophia viridis;10266
Psophia dextralis;11850
Psophia interjecta;11897
Psophia obscura;11851
Coturnicops notatus;10267
Micropygia schomburgkii;10268
Rallus longirostris;10269
Aramides ypecaha;10270
Aramides mangle;10271
Aramides cajaneus;10272
Aramides saracura;10274
Amaurolimnas concolor;10275
Anurolimnas castaneiceps;10276
Laterallus viridis;10277
Laterallus fasciatus;10278
Laterallus melanophaius;10279
Laterallus exilis;10280
Laterallus jamaicensis;10281
Laterallus leucopyrrhus;10282
Laterallus xenopterus;10283
Porzana flaviventer;10284
Porzana spiloptera;10285
Mustelirallus albicollis;10286
Neocrex erythrops;10287
Crex crex;11898
Pardirallus maculatus;10288
Pardirallus nigricans;10289
Pardirallus sanguinolentus;10290
Gallinula galeata;10291
Porphyriops melanops;10293
Porphyrio martinicus;10294
Porphyrio flavirostris;10295
Fulica armillata;10296
Fulica rufifrons;10297
Fulica leucoptera;10298
Heliornis fulica;10299
Vanellus cayanus;10302
Vanellus chilensis;10303
Pluvialis dominica;10304
Pluvialis squatarola;10305
Charadrius semipalmatus;10306
Charadrius wilsonia;10308
Charadrius collaris;10309
Charadrius falklandicus;10310
Charadrius modestus;10311
Oreopholus ruficollis;10312
Haematopus palliatus;10313
Himantopus mexicanus;10314
Himantopus melanurus;10315
Burhinus bistriatus;10316
Chionis albus;10317
Gallinago paraguaiae;10318
Gallinago undulata;10319
Limnodromus griseus;10320
Limosa haemastica;10321
Limosa lapponica;10322
Limosa fedoa;10323
Numenius hudsonicus;10325
Numenius phaeopus;11899
Bartramia longicauda;10326
Actitis macularius;10328
Tringa solitaria;10329
Tringa melanoleuca;10330
Tringa semipalmata;10331
Tringa flavipes;10332
Tringa totanus;10333
Arenaria interpres;10334
Calidris canutus;10335
Calidris alba;10336
Calidris pusilla;10337
Calidris minutilla;10338
Calidris fuscicollis;10339
Calidris bairdii;10340
Calidris melanotos;10341
Calidris himantopus;10342
Calidris subruficollis;10343
Calidris pugnax;10344
Phalaropus tricolor;10345
Phalaropus fulicarius;10346
Thinocorus rumicivorus;10347
Jacana jacana;10348
Nycticryphes semicollaris;10349
Glareola pratincola;10350
Stercorarius skua;10351
Stercorarius chilensis;10352
Stercorarius maccormicki;10353
Stercorarius antarcticus;10354
Stercorarius pomarinus;10355
Stercorarius parasiticus;10356
Stercorarius longicaudus;10357
Xema sabini;11852
Chroicocephalus maculipennis;10365
Chroicocephalus cirrocephalus;10364
Leucophaeus atricilla;10362
Leucophaeus pipixcan;10363
Larus atlanticus;10358
Larus delawarensis;10359
Larus dominicanus;10360
Larus fuscus;10361
Anous stolidus;10366
Anous minutus;10367
Gygis alba;10368
Onychoprion fuscatus;10369
Sternula antillarum;10370
Sternula superciliaris;10371
Phaetusa simplex;10372
Gelochelidon nilotica;10373
Chlidonias leucopterus;11853
Chlidonias niger;10374
Sterna hirundo;10375
Sterna dougallii;10376
Sterna paradisaea;10377
Sterna hirundinacea;10378
Sterna vittata;10379
Sterna trudeaui;10380
Thalasseus acuflavidus;10381
Thalasseus maximus;10382
Rynchops niger;10383
Columbina passerina;10384
Columbina minuta;10385
Columbina talpacoti;10386
Columbina squammata;10387
Columbina picui;10388
Columbina cyanopis;10389
Claravis pretiosa;10390
Uropelia campestris;10392
Columba livia;10393
Patagioenas speciosa;10394
Patagioenas picazuro;10395
Patagioenas maculosa;10396
Patagioenas fasciata;10397
Patagioenas cayennensis;10398
Patagioenas plumbea;10399
Patagioenas subvinacea;10400
Zenaida auriculata;10401
Leptotila verreauxi;10402
Leptotila rufaxilla;10403
Geotrygon violacea;10405
Geotrygon montana;10406
Opisthocomus hoazin;10491
Coccycua minuta;10492
Micrococcyx pumilus;10493
Micrococcyx cinereus;10494
Piaya cayana;10495
Piaya melanogaster;10496
Coccyzus melacoryphus;10497
Coccyzus americanus;10498
Coccyzus euleri;10499
Coccyzus minor;10500
Coccyzus erythropthalmus;10501
Crotophaga major;10502
Crotophaga ani;10503
Guira guira;10504
Tapera naevia;10505
Dromococcyx phasianellus;10506
Dromococcyx pavoninus;10507
Neomorphus geoffroyi;10508
Neomorphus squamiger;10509
Neomorphus rufipennis;10510
Neomorphus pucheranii;10511
Tyto furcata;10512
Megascops choliba;10513
Megascops watsonii;10514
Megascops usta;10515
Megascops atricapilla;10516
Megascops sanctaecatarinae;10517
Megascops guatemalae;10518
Lophostrix cristata;10519
Pulsatrix perspicillata;10520
Pulsatrix koeniswaldiana;10521
Bubo virginianus;10522
Strix hylophila;10523
Strix virgata;10524
Strix huhula;10525
Glaucidium hardyi;10526
Glaucidium minutissimum;10528
Glaucidium brasilianum;10529
Athene cunicularia;10530
Aegolius harrisii;10531
Asio clamator;10532
Asio stygius;10533
Asio flammeus;10534
Steatornis caripensis;10535
Nyctibius grandis;10536
Nyctibius aethereus;10537
Nyctibius griseus;10538
Nyctibius leucopterus;10539
Nyctibius bracteatus;10540
Nyctiphrynus ocellatus;10550
Antrostomus rufus;10551
Antrostomus sericocaudatus;10552
Lurocalis semitorquatus;10541
Nyctiprogne leucopyga;10546
Nyctiprogne vielliardi;10547
Nyctidromus nigrescens;10557
Nyctidromus albicollis;10549
Nyctidromus hirundinaceus;10559
Hydropsalis parvula;10556
Hydropsalis anomala;10563
Hydropsalis candicans;10564
Hydropsalis roraimae;11972
Hydropsalis longirostris;10553
Hydropsalis maculicaudus;10555
Hydropsalis cayennensis;10554
Hydropsalis climacocerca;10560
Hydropsalis torquata;10561
Hydropsalis forcipata;10562
Nannochordeiles pusillus;10542
Podager nacunda;10548
Chordeiles minor;10545
Chordeiles rupestris;10543
Chordeiles acutipennis;10544
Cypseloides cryptus;10565
Cypseloides niger;11900
Cypseloides lemosi;10566
Cypseloides fumigatus;10567
Cypseloides senex;10568
Streptoprocne phelpsi;10569
Streptoprocne zonaris;10570
Streptoprocne biscutata;10571
Chaetura spinicaudus;10572
Chaetura cinereiventris;10573
Chaetura egregia;10574
Chaetura pelagica;10575
Chaetura chapmani;10576
Chaetura viridipennis;10577
Chaetura meridionalis;10578
Chaetura brachyura;10579
Aeronautes montivagus;10580
Tachornis squamata;10581
Panyptila cayennensis;10582
Ramphodon naevius;10583
Glaucis dohrnii;10584
Glaucis hirsutus;10585
Threnetes leucurus;10586
Anopetia gounellei;10588
Phaethornis squalidus;10589
Phaethornis maranhaoensis;10590
Phaethornis rupurumii;10591
Phaethornis aethopygus;10592
Phaethornis idaliae;10593
Phaethornis nattereri;10594
Phaethornis griseogularis;10595
Phaethornis ruber;10596
Phaethornis subochraceus;10597
Phaethornis augusti;11803
Phaethornis pretrei;10598
Phaethornis eurynome;10599
Phaethornis hispidus;10600
Phaethornis philippii;10601
Phaethornis bourcieri;10602
Phaethornis superciliosus;10603
Phaethornis malaris;10604
Phaethornis margarettae;10605
Doryfera johannae;10606
Campylopterus largipennis;10607
Campylopterus hyperythrus;10608
Campylopterus duidae;10609
Eupetomena macroura;10610
Aphantochroa cirrochloris;10611
Florisuga mellivora;10612
Florisuga fusca;10613
Colibri delphinae;10614
Colibri coruscans;10615
Colibri serrirostris;10616
Anthracothorax viridigula;10617
Anthracothorax nigricollis;10618
Avocettula recurvirostris;10619
Topaza pella;10620
Topaza pyra;10621
Chrysolampis mosquitus;10622
Stephanoxis lalandi;10623
Stephanoxis loddigesii;11973
Lophornis ornatus;10624
Lophornis gouldii;10625
Lophornis magnificus;10626
Lophornis chalybeus;10627
Lophornis pavoninus;10628
Discosura langsdorffi;10629
Discosura longicaudus;10630
Chlorestes notata;10631
Chlorostilbon mellisugus;10632
Chlorostilbon lucidus;10633
Thalurania furcata;10634
Thalurania watertonii;10635
Thalurania glaucopis;10636
Hylocharis sapphirina;10637
Hylocharis cyanus;10638
Hylocharis chrysura;10639
Chrysuronia oenone;10640
Leucochloris albicollis;10641
Polytmus guainumbi;10642
Polytmus theresiae;10643
Leucippus chlorocercus;10644
Amazilia chionogaster;10645
Amazilia leucogaster;10646
Amazilia versicolor;10647
Amazilia rondoniae;10648
Amazilia brevirostris;10649
Amazilia fimbriata;10650
Amazilia lactea;10651
Amazilia viridigaster;10652
Heliodoxa rubricauda;10653
Heliodoxa xanthogonys;10654
Heliodoxa schreibersii;10655
Heliodoxa aurescens;10656
Augastes scutatus;10657
Augastes lumachella;10658
Heliothryx auritus;10659
Heliactin bilophus;10660
Heliomaster longirostris;10661
Heliomaster squamosus;10662
Heliomaster furcifer;10663
Calliphlox amethystina;10664
Trogon melanurus;10672
Trogon viridis;10665
Trogon ramonianus;11805
Trogon surrucura;10666
Trogon violaceus;10668
Trogon curucui;10667
Trogon rufus;10671
Trogon collaris;10669
Trogon personatus;10670
Pharomachrus pavoninus;10673
Megaceryle torquata;10674
Chloroceryle amazona;10675
Chloroceryle aenea;10676
Chloroceryle americana;10677
Chloroceryle inda;10678
Electron platyrhynchum;10679
Baryphthengus martii;10680
Baryphthengus ruficapillus;10681
Momotus momota;10682
Galbalcyrhynchus leucotis;10683
Galbalcyrhynchus purusianus;10684
Brachygalba albogularis;10685
Brachygalba lugubris;10686
Jacamaralcyon tridactyla;10687
Galbula albirostris;10688
Galbula cyanicollis;10689
Galbula ruficauda;10690
Galbula galbula;10691
Galbula tombacea;10692
Galbula cyanescens;10693
Galbula chalcothorax;10694
Galbula leucogastra;10695
Galbula dea;10696
Jacamerops aureus;10697
Notharchus hyperrhynchus;10699
Notharchus macrorhynchos;10698
Notharchus swainsoni;10700
Notharchus ordii;10701
Notharchus tectus;10702
Bucco macrodactylus;10703
Bucco tamatia;10704
Bucco capensis;10705
Nystalus obamai;11901
Nystalus striolatus;10706
Nystalus torridus;11902
Nystalus chacuru;10707
Nystalus maculatus;10708
Nystalus striatipectus;10709
Malacoptila fusca;10710
Malacoptila semicincta;10711
Malacoptila striata;10712
Malacoptila rufa;10713
Micromonacha lanceolata;10714
Nonnula rubecula;10715
Nonnula sclateri;10716
Nonnula ruficapilla;10717
Nonnula amaurocephala;10718
Monasa atra;10719
Monasa nigrifrons;10720
Monasa morphoeus;10721
Monasa flavirostris;10722
Chelidoptera tenebrosa;10723
Capito aurovirens;10724
Capito dayi;10725
Capito brunneipectus;10726
Capito niger;10727
Capito auratus;10728
Eubucco richardsoni;10729
Eubucco tucinkae;10730
Ramphastos toco;10731
Ramphastos tucanus;10732
Ramphastos vitellinus;10733
Ramphastos dicolorus;10734
Aulacorhynchus atrogularis;10735
Aulacorhynchus whitelianus;10736
Selenidera piperivora;10737
Selenidera reinwardtii;10738
Selenidera nattereri;10739
Selenidera gouldii;10740
Selenidera maculirostris;10741
Pteroglossus bailloni;10742
Pteroglossus viridis;10743
Pteroglossus inscriptus;10744
Pteroglossus bitorquatus;10745
Pteroglossus azara;10746
Pteroglossus flavirostris;11903
Pteroglossus mariae;10747
Pteroglossus aracari;10748
Pteroglossus castanotis;10749
Pteroglossus pluricinctus;10750
Pteroglossus beauharnaisii;10751
Picumnus aurifrons;10752
Picumnus lafresnayi;10754
Picumnus undulatus;11974
Picumnus buffonii;11975
Picumnus pernambucensis;11976
Picumnus exilis;10755
Picumnus spilogaster;10756
Picumnus pygmaeus;10757
Picumnus varzeae;10758
Picumnus cirratus;10759
Picumnus temminckii;10760
Picumnus albosquamatus;10761
Picumnus fuscus;10762
Picumnus rufiventris;10763
Picumnus fulvescens;10764
Picumnus limae;10765
Picumnus nebulosus;10766
Picumnus castelnau;10767
Picumnus subtilis;11824
Melanerpes candidus;10768
Melanerpes cruentatus;10769
Melanerpes flavifrons;10770
Melanerpes cactorum;10771
Veniliornis kirkii;10772
Veniliornis cassini;10773
Veniliornis affinis;10774
Veniliornis maculifrons;10775
Veniliornis passerinus;10776
Veniliornis spilogaster;10777
Veniliornis mixtus;10778
Piculus leucolaemus;10779
Piculus flavigula;10780
Piculus capistratus;11904
Piculus laemostictus;11905
Piculus paraensis;11906
Piculus chrysochloros;10781
Piculus polyzonus;11907
Piculus aurulentus;10782
Colaptes rubiginosus;10783
Colaptes punctigula;10784
Colaptes melanochloros;10785
Colaptes campestris;10786
Celeus torquatus;10795
Celeus galeatus;10796
Celeus ochraceus;11908
Celeus flavescens;10791
Celeus elegans;10789
Celeus lugubris;10790
Celeus undatus;10787
Celeus grammicus;10788
Celeus flavus;10792
Celeus spectabilis;10793
Celeus obrieni;10794
Dryocopus lineatus;10797
Campephilus rubricollis;10798
Campephilus robustus;10799
Campephilus melanoleucos;10800
Campephilus leucopogon;10801
Cariama cristata;10301
Daptrius ater;10242
Ibycter americanus;10243
Caracara cheriway;10244
Caracara plancus;10245
Milvago chimachima;10246
Milvago chimango;10247
Herpetotheres cachinnans;10248
Micrastur ruficollis;10249
Micrastur gilvicollis;10250
Micrastur mintoni;10251
Micrastur mirandollei;10252
Micrastur semitorquatus;10253
Micrastur buckleyi;10254
Falco tinnunculus;10256
Falco sparverius;10257
Falco columbarius;10258
Falco rufigularis;10259
Falco deiroleucus;10260
Falco femoralis;10261
Falco peregrinus;10262
Anodorhynchus hyacinthinus;10407
Anodorhynchus leari;10409
Cyanopsitta spixii;10410
Ara ararauna;10411
Ara macao;10412
Ara chloropterus;10413
Ara severus;10414
Orthopsittaca manilatus;10415
Primolius maracana;10416
Primolius couloni;10417
Primolius auricollis;10418
Diopsittaca nobilis;10419
Guaruba guarouba;10420
Thectocercus acuticaudatus;10421
Psittacara leucophthalmus;10422
Aratinga nenday;10423
Aratinga auricapillus;10424
Aratinga jandaya;10425
Aratinga solstitialis;10427
Aratinga maculata;10426
Aratinga weddellii;10428
Eupsittula aurea;10429
Eupsittula pertinax;10430
Eupsittula cactorum;10431
Pyrrhura cruentata;10432
Pyrrhura devillei;10433
Pyrrhura frontalis;10434
Pyrrhura anerythra;11978
Pyrrhura coerulescens;10435
Pyrrhura perlata;10436
Pyrrhura molinae;10437
Pyrrhura leucotis;10438
Pyrrhura griseipectus;10439
Pyrrhura pfrimeri;10440
Pyrrhura picta;10441
Pyrrhura lucianii;10442
Pyrrhura roseifrons;10443
Pyrrhura amazonum;10444
Pyrrhura snethlageae;10445
Pyrrhura egregia;10446
Pyrrhura melanura;10447
Pyrrhura rupicola;10448
Myiopsitta monachus;10449
Forpus passerinus;10450
Forpus xanthopterygius;10451
Forpus sclateri;10452
Brotogeris tirica;10453
Brotogeris versicolurus;10454
Brotogeris chiriri;10455
Brotogeris cyanoptera;10456
Brotogeris chrysoptera;10457
Brotogeris sanctithomae;10458
Nannopsittaca panychlora;10459
Nannopsittaca dachilleae;10460
Touit huetii;10463
Touit purpuratus;10461
Touit melanonotus;10462
Touit surdus;10464
Pionites melanocephalus;10465
Pionites leucogaster;10466
Pyrilia vulturina;10467
Pyrilia aurantiocephala;10468
Pyrilia barrabandi;10469
Pyrilia caica;10470
Pionopsitta pileata;10471
Graydidascalus brachyurus;10472
Alipiopsitta xanthops;10473
Pionus menstruus;10474
Pionus reichenowi;11802
Pionus maximiliani;10475
Pionus fuscus;10476
Amazona festiva;10482
Amazona vinacea;10488
Amazona pretrei;10477
Amazona kawalli;10485
Amazona farinosa;10487
Amazona brasiliensis;10479
Amazona amazonica;10486
Amazona autumnalis;10478
Amazona dufresniana;10480
Amazona rhodocorytha;10481
Amazona ochrocephala;10484
Amazona aestiva;10483
Deroptyus accipitrinus;10489
Triclaria malachitacea;10490
Euchrepomis humeralis;10905
Euchrepomis spodioptila;10906
Myrmornis torquata;10951
Pygiptila stellaris;10846
Microrhopias quixensis;10887
Myrmorchilus strigilatus;10876
Neoctantes niger;10836
Clytoctantes atrogularis;10837
Epinecrophylla gutturalis;10847
Epinecrophylla leucophthalma;10848
Epinecrophylla haematonota;10849
Epinecrophylla pyrrhonota;11910
Epinecrophylla amazonica;11911
Epinecrophylla dentei;11912
Epinecrophylla ornata;10850
Epinecrophylla erythrura;10851
Aprositornis disjuncta;10950
Ammonastes pelzelni;10943
Myrmophylax atrothorax;10945
Myrmochanes hemileucus;10929
Terenura sicki;10903
Terenura maculata;10904
Myrmotherula brachyura;10852
Myrmotherula obscura;10853
Myrmotherula ambigua;10854
Myrmotherula sclateri;10855
Myrmotherula surinamensis;10856
Myrmotherula multostriata;10857
Myrmotherula cherriei;10858
Myrmotherula klagesi;10859
Myrmotherula axillaris;10863
Myrmotherula minor;10865
Myrmotherula longipennis;10866
Myrmotherula urosticta;10867
Myrmotherula iheringi;10868
Myrmotherula oreni;11913
Myrmotherula heteroptera;11914
Myrmotherula unicolor;10870
Myrmotherula snowi;10871
Myrmotherula menetriesii;10873
Myrmotherula assimilis;10874
Formicivora iheringi;10888
Formicivora erythronotos;10889
Formicivora grisea;10890
Formicivora serrana;10891
Formicivora littoralis;10892
Formicivora melanogaster;10893
Formicivora rufa;10894
Formicivora grantsaui;11807
Formicivora paludicola;11979
Formicivora acutirostris;10895
Isleria hauxwelli;10860
Isleria guttata;10861
Thamnomanes ardesiacus;10842
Thamnomanes saturninus;10843
Thamnomanes caesius;10844
Thamnomanes schistogynus;10845
Dichrozona cincta;10875
Rhopias gularis;10862
Megastictus margaritatus;10835
Dysithamnus stictothorax;10838
Dysithamnus mentalis;10839
Dysithamnus xanthopterus;10840
Dysithamnus plumbeus;10841
Herpsilochmus sellowi;10877
Herpsilochmus pileatus;10878
Herpsilochmus atricapillus;10879
Herpsilochmus praedictus;11915
Herpsilochmus stotzi;11916
Herpsilochmus sticturus;10880
Herpsilochmus stictocephalus;10881
Herpsilochmus dorsimaculatus;10882
Herpsilochmus roraimae;10883
Herpsilochmus pectoralis;10884
Herpsilochmus longirostris;10885
Herpsilochmus rufimarginatus;10886
Sakesphorus canadensis;10812
Sakesphorus cristatus;10813
Sakesphorus luctuosus;10815
Thamnophilus doliatus;10817
Thamnophilus capistratus;11806
Thamnophilus ruficapillus;10834
Thamnophilus torquatus;10833
Thamnophilus palliatus;10818
Thamnophilus schistaceus;10822
Thamnophilus murinus;10823
Thamnophilus cryptoleucus;10820
Thamnophilus nigrocinereus;10819
Thamnophilus punctatus;10824
Thamnophilus stictocephalus;10825
Thamnophilus sticturus;10826
Thamnophilus pelzelni;10827
Thamnophilus ambiguus;10828
Thamnophilus caerulescens;10832
Thamnophilus aethiops;10821
Thamnophilus melanothorax;10814
Thamnophilus amazonicus;10829
Thamnophilus insignis;10831
Thamnophilus divisorius;10830
Cymbilaimus lineatus;10803
Cymbilaimus sanctaemariae;10804
Taraba major;10811
Hypoedaleus guttatus;10805
Batara cinerea;10806
Mackenziaena leachii;10807
Mackenziaena severa;10808
Frederickena viridis;10809
Frederickena unduliger;10810
Biatas nigropectus;10816
Myrmoderus ferrugineus;10939
Myrmoderus ruficauda;10940
Myrmoderus loricatus;10941
Myrmoderus squamosus;10942
Hypocnemoides maculicauda;10927
Hypocnemoides melanopogon;10928
Hylophylax naevius;10961
Hylophylax punctulatus;10962
Sclateria naevia;10930
Myrmelastes saturatus;10936
Myrmelastes schistaceus;10934
Myrmelastes hyperythrus;10948
Myrmelastes rufifacies;11815
Myrmelastes leucostigma;10935
Myrmelastes humaythae;11814
Myrmelastes caurensis;10937
Myrmeciza longipes;10938
Myrmoborus melanurus;10924
Myrmoborus lophotes;10933
Myrmoborus myotherinus;10923
Myrmoborus leucophrys;10921
Myrmoborus lugubris;10922
Pyriglena leuconota;10917
Pyriglena pernambucensis;11917
Pyriglena atra;10918
Pyriglena leucoptera;10919
Rhopornis ardesiacus;10920
Percnostola rufifrons;10931
Percnostola subcristata;11813
Percnostola minor;10932
Akletos melanoceps;10946
Akletos goeldii;10947
Hafferia fortis;10949
Sciaphylax hemimelaena;10944
Sciaphylax pallens;11918
Cercomacra manu;10915
Cercomacra brasiliana;10908
Cercomacra cinerascens;10907
Cercomacra melanaria;10914
Cercomacra ferdinandi;10916
Cercomacra carbonaria;10913
Cercomacroides nigrescens;10911
Cercomacroides fuscicauda;11980
Cercomacroides laeta;10910
Cercomacroides tyrannina;10909
Cercomacroides serva;10912
Drymophila ferruginea;10896
Drymophila rubricollis;10897
Drymophila genei;10898
Drymophila ochropyga;10899
Drymophila malura;10900
Drymophila squamata;10901
Drymophila devillei;10902
Hypocnemis hypoxantha;10926
Hypocnemis subflava;11810
Hypocnemis cantator;10925
Hypocnemis flavescens;11808
Hypocnemis peruviana;11809
Hypocnemis ochrogyna;11811
Hypocnemis rondoni;11919
Hypocnemis striata;11812
Pithys albifrons;10952
Willisornis poecilinotus;10963
Willisornis vidua;11920
Phlegopsis nigromaculata;10964
Phlegopsis borbae;10966
Phlegopsis erythroptera;10965
Gymnopithys leucaspis;10953
Gymnopithys rufigula;10954
Oneillornis salvini;10955
Rhegmatorhina gymnops;10956
Rhegmatorhina berlepschi;10957
Rhegmatorhina hoffmannsi;10958
Rhegmatorhina cristata;10959
Rhegmatorhina melanosticta;10960
Melanopareia torquata;10802
Conopophaga cearae;11981
Conopophaga lineata;10967
Conopophaga aurita;10968
Conopophaga roberti;10969
Conopophaga melanogaster;10970
Conopophaga peruviana;10971
Conopophaga melanops;10972
Grallaria varia;10973
Grallaria eludens;10974
Hylopezus macularius;10975
Hylopezus whittakeri;11922
Hylopezus paraensis;11923
Hylopezus berlepschi;10976
Hylopezus ochroleucus;10977
Hylopezus nattereri;10978
Myrmothera campanisona;10979
Myrmothera simplex;10980
Merulaxis ater;10983
Merulaxis stresemanni;10984
Eleoscytalopus indigoticus;10990
Eleoscytalopus psychopompus;10991
Scytalopus gonzagai;11982
Scytalopus speluncae;10985
Scytalopus diamantinensis;11816
Scytalopus petrophilus;10986
Scytalopus pachecoi;10988
Scytalopus novacapitalis;10989
Scytalopus iraiensis;10987
Psilorhamphus guttatus;10982
Liosceles thoracicus;10981
Formicarius colma;10992
Formicarius analis;10993
Formicarius rufifrons;10994
Chamaeza campanisona;10995
Chamaeza nobilis;10996
Chamaeza meruloides;10997
Chamaeza ruficauda;10998
Sclerurus macconnelli;10999
Sclerurus rufigularis;11000
Sclerurus caudacutus;11001
Sclerurus albigularis;11002
Sclerurus cearensis;11924
Sclerurus scansor;11003
Geositta poeciloptera;11004
Geositta cunicularia;11005
Dendrocincla fuliginosa;11006
Dendrocincla taunayi;11925
Dendrocincla turdina;11007
Dendrocincla merula;11008
Deconychura longicauda;11009
Sittasomus griseicapillus;11011
Certhiasomus stictolaemus;11010
Glyphorynchus spirurus;11012
Xiphorhynchus atlanticus;11825
Xiphorhynchus fuscus;11031
Xiphorhynchus pardalotus;11034
Xiphorhynchus chunchotambo;11032
Xiphorhynchus beauperthuysii;11033
Xiphorhynchus ocellatus;11926
Xiphorhynchus elegans;11035
Xiphorhynchus spixii;11036
Xiphorhynchus obsoletus;11037
Xiphorhynchus guttatus;11038
Xiphorhynchus guttatoides;11983
Campylorhamphus falcularius;11046
Campylorhamphus multostriatus;11927
Campylorhamphus trochilirostris;11045
Campylorhamphus probatus;11928
Campylorhamphus cardosoi;11929
Campylorhamphus procurvoides;11047
Campylorhamphus gyldenstolpei;11931
Drymornis bridgesii;11013
Dendroplex picus;11029
Dendroplex kienerii;11030
Lepidocolaptes souleyetii;11039
Lepidocolaptes angustirostris;11040
Lepidocolaptes wagleri;11043
Lepidocolaptes squamatus;11041
Lepidocolaptes falcinellus;11042
Lepidocolaptes albolineatus;11044
Lepidocolaptes duidae;11932
Lepidocolaptes fatimalimae;11933
Lepidocolaptes fuscicapillus;11934
Lepidocolaptes layardi;11935
Nasica longirostris;11014
Dendrexetastes rufigula;11015
Dendrocolaptes certhia;11025
Dendrocolaptes radiolatus;11936
Dendrocolaptes juruanus;11937
Dendrocolaptes concolor;11938
Dendrocolaptes ridgwayi;11939
Dendrocolaptes retentus;11940
Dendrocolaptes medius;11941
Dendrocolaptes picumnus;11026
Dendrocolaptes hoffmannsi;11027
Dendrocolaptes platyrostris;11028
Xiphocolaptes promeropirhynchus;11020
Xiphocolaptes carajaensis;11021
Xiphocolaptes falcirostris;11022
Xiphocolaptes albicollis;11023
Xiphocolaptes major;11024
Hylexetastes stresemanni;11016
Hylexetastes perrotii;11017
Hylexetastes uniformis;11018
Hylexetastes brigidai;11019
Xenops tenuirostris;11146
Xenops minutus;11147
Xenops rutilans;11148
Berlepschia rikeri;11116
Microxenops milleri;11145
Tarphonomus certhioides;11942
Cinclodes espinhacensis;11943
Cinclodes pabsti;11049
Cinclodes fuscus;11048
Furnarius figulus;11050
Furnarius leucopus;11051
Furnarius torridus;11052
Furnarius minor;11053
Furnarius rufus;11054
Limnornis curvirostris;11055
Phleocryptes melanops;11056
Lochmias nematura;11143
Ancistrops strigilatus;11121
Clibanornis rectirostris;11142
Clibanornis dendrocolaptoides;11107
Clibanornis obscurus;11140
Clibanornis watkinsi;11944
Automolus rufipileatus;11141
Automolus melanopezus;11138
Automolus cervicalis;11945
Automolus subulatus;11122
Automolus ochrolaemus;11134
Automolus infuscatus;11135
Automolus paraensis;11136
Automolus lammi;11817
Automolus leucophthalmus;11137
Megaxenops parnaguae;11149
Anabazenops dorsalis;11131
Anabazenops fuscus;11132
Anabacerthia ruficaudata;11123
Anabacerthia amaurotis;11117
Anabacerthia lichtensteini;11126
Philydor erythrocercum;11124
Philydor erythropterum;11125
Philydor novaesi;11127
Philydor atricapillus;11128
Philydor rufum;11129
Philydor pyrrhodes;11130
Heliobletus contaminatus;11144
Syndactyla rufosuperciliata;11118
Syndactyla dimidiata;11119
Syndactyla roraimae;11139
Syndactyla ucayalae;11120
Cichlocolaptes leucophrus;11133
Leptasthenura platensis;11057
Leptasthenura striolata;11058
Leptasthenura setaria;11059
Spartonoica maluroides;11060
Pseudoseisura cristata;11113
Pseudoseisura unirufa;11114
Pseudoseisura lophotes;11115
Phacellodomus rufifrons;11102
Phacellodomus sibilatrix;11946
Phacellodomus striaticollis;11103
Phacellodomus ruber;11104
Phacellodomus erythrophthalmus;11105
Phacellodomus ferrugineigula;11106
Anumbius annumbi;11108
Coryphistera alaudina;11109
Mazaria propinqua;11074
Schoeniophylax phryganophilus;11062
Certhiaxis cinnamomeus;11094
Certhiaxis mustelinus;11095
Synallaxis hellmayri;11082
Synallaxis sp.;11076
Synallaxis ruficapilla;11063
Synallaxis cinerea;11064
Synallaxis infuscata;11065
Synallaxis cinerascens;11066
Synallaxis frontalis;11067
Synallaxis albescens;11068
Synallaxis albigularis;11069
Synallaxis spixi;11070
Synallaxis hypospodia;11071
Synallaxis rutilans;11072
Synallaxis cherriei;11073
Synallaxis macconnelli;11075
Synallaxis gujanensis;11077
Synallaxis albilora;11078
Synallaxis simoni;11079
Synallaxis scutata;11080
Synallaxis kollari;11081
Asthenes baeri;11100
Asthenes luizae;11101
Asthenes pyrrholeuca;11099
Asthenes moreirae;11061
Asthenes hudsoni;11098
Acrobatornis fonsecai;11111
Metopothrix aurantiaca;11110
Limnoctites rectirostris;11093
Cranioleuca vulpina;11083
Cranioleuca vulpecula;11084
Cranioleuca sulphurifera;11085
Cranioleuca pyrrhophia;11086
Cranioleuca obsoleta;11087
Cranioleuca pallida;11088
Cranioleuca semicinerea;11089
Cranioleuca demissa;11090
Cranioleuca gutturata;11091
Cranioleuca muelleri;11092
Thripophaga macroura;11096
Thripophaga fusciceps;11097
Roraimia adusta;11112
Neopelma pallescens;11392
Neopelma chrysocephalum;11393
Neopelma aurifrons;11394
Neopelma chrysolophum;11395
Neopelma sulphureiventer;11396
Tyranneutes stolzmanni;11397
Tyranneutes virescens;11398
Pipra aureola;11423
Pipra filicauda;11424
Pipra fasciicauda;11425
Ceratopipra cornuta;11426
Ceratopipra erythrocephala;11427
Ceratopipra rubrocapilla;11428
Ceratopipra chloromeros;11429
Lepidothrix coronata;11406
Lepidothrix nattereri;11407
Lepidothrix vilasboasi;11408
Lepidothrix iris;11409
Lepidothrix serena;11410
Lepidothrix suavissima;11411
Manacus manacus;11412
Heterocercus flavivertex;11420
Heterocercus linteatus;11421
Machaeropterus regulus;11403
Machaeropterus striolatus;11404
Machaeropterus pyrocephalus;11405
Dixiphia pipra;11422
Xenopipo uniformis;11417
Xenopipo atronitens;11418
Ilicura militaris;11401
Corapipo gutturalis;11402
Chiroxiphia pareola;11415
Chiroxiphia caudata;11416
Antilophia bokermanni;11413
Antilophia galeata;11414
Oxyruncus cristatus;11430
Onychorhynchus coronatus;11271
Onychorhynchus swainsoni;11272
Terenotriccus erythrurus;11277
Myiobius barbatus;11275
Myiobius atricaudus;11276
Schiffornis major;11431
Schiffornis virescens;11433
Schiffornis turdina;11432
Schiffornis olivacea;11819
Schiffornis amazonum;11820
Laniocera hypopyrra;11434
Laniisoma elegans;11435
Iodopleura isabellae;11436
Iodopleura fusca;11437
Iodopleura pipra;11438
Tityra inquisitor;11439
Tityra cayana;11440
Tityra semifasciata;11441
Pachyramphus viridis;11442
Pachyramphus xanthogenys;11826
Pachyramphus rufus;11443
Pachyramphus castaneus;11444
Pachyramphus polychopterus;11445
Pachyramphus marginatus;11446
Pachyramphus surinamus;11447
Pachyramphus minor;11448
Pachyramphus validus;11449
Xenopsaris albinucha;11450
Pipreola whitelyi;11367
Carpornis cucullata;11365
Carpornis melanocephala;11366
Rupicola rupicola;11361
Phoenicircus carnifex;11362
Phoenicircus nigricollis;11363
Phytotoma rutila;11360
Phibalura flavirostris;11364
Haematoderus militaris;11388
Querula purpurata;11387
Pyroderus scutatus;11389
Perissocephalus tricolor;11390
Cephalopterus ornatus;11391
Lipaugus ater;11375
Lipaugus conditus;11376
Lipaugus lanioides;11379
Lipaugus streptophorus;11380
Lipaugus vociferans;11378
Procnias albus;11372
Procnias averano;11373
Procnias nudicollis;11374
Cotinga maynana;11368
Cotinga cayana;11371
Cotinga cotinga;11369
Cotinga maculata;11370
Porphyrolaema porphyrolaema;11382
Gymnoderus foetidus;11386
Conioptilon mcilhennyi;11381
Xipholena punicea;11383
Xipholena lamellipennis;11384
Xipholena atropurpurea;11385
Piprites chloris;11399
Piprites pileata;11400
Neopipo cinnamomea;11278
Platyrinchus saturatus;11266
Platyrinchus mystaceus;11267
Platyrinchus coronatus;11268
Platyrinchus platyrhynchos;11269
Platyrinchus leucoryphus;11270
Tachuris rubrigastra;11255
Taeniotriccus andrei;11184
Cnipodectes subbrunneus;11259
Cnipodectes superrufus;11260
Mionectes oleagineus;11150
Mionectes roraimae;11985
Mionectes macconnelli;11151
Mionectes rufiventris;11152
Leptopogon amaurocephalus;11153
Corythopis torquatus;11154
Corythopis delalandi;11155
Phylloscartes eximius;11238
Phylloscartes ventralis;11239
Phylloscartes kronei;11241
Phylloscartes beckeri;11242
Phylloscartes virescens;11243
Phylloscartes nigrifrons;11244
Phylloscartes ceciliae;11240
Phylloscartes roquettei;11245
Phylloscartes paulista;11246
Phylloscartes oustaleti;11247
Phylloscartes difficilis;11248
Phylloscartes sylviolus;11249
Rhynchocyclus olivaceus;11261
Tolmomyias sulphurescens;11262
Tolmomyias assimilis;11263
Tolmomyias sucunduri;11947
Tolmomyias poliocephalus;11264
Tolmomyias flaviventris;11265
Todirostrum maculatum;11185
Todirostrum poliocephalum;11186
Todirostrum cinereum;11187
Todirostrum pictum;11188
Todirostrum chrysocrotaphum;11189
Poecilotriccus albifacies;11823
Poecilotriccus capitalis;11177
Poecilotriccus senex;11178
Poecilotriccus russatus;11179
Poecilotriccus plumbeiceps;11180
Poecilotriccus fumifrons;11181
Poecilotriccus latirostris;11182
Poecilotriccus sylvia;11183
Myiornis auricularis;11257
Myiornis ecaudatus;11258
Hemitriccus cohnhafti;11948
Hemitriccus minor;11160
Hemitriccus flammulatus;11161
Hemitriccus diops;11162
Hemitriccus obsoletus;11163
Hemitriccus josephinae;11164
Hemitriccus zosterops;11165
Hemitriccus griseipectus;11166
Hemitriccus orbitatus;11167
Hemitriccus iohannis;11168
Hemitriccus striaticollis;11169
Hemitriccus nidipendulus;11170
Hemitriccus margaritaceiventer;11171
Hemitriccus inornatus;11172
Hemitriccus minimus;11173
Hemitriccus mirandae;11174
Hemitriccus kaempferi;11175
Hemitriccus furcatus;11176
Atalotriccus pilaris;11159
Lophotriccus vitiosus;11156
Lophotriccus eulophotes;11157
Lophotriccus galeatus;11158
Hirundinea ferruginea;11279
Zimmerius chicomendesi;11949
Zimmerius acer;11950
Zimmerius gracilipes;11236
Stigmatura napensis;11234
Stigmatura budytoides;11235
Inezia inornata;11252
Inezia subflava;11253
Inezia caudata;11254
Euscarthmus meloryphus;11232
Euscarthmus rufomarginatus;11233
Tyranniscus burmeisteri;11190
Ornithion inerme;11214
Camptostoma obsoletum;11215
Elaenia flavogaster;11201
Elaenia spectabilis;11202
Elaenia ridleyana;11203
Elaenia chilensis;11204
Elaenia parvirostris;11205
Elaenia mesoleuca;11206
Elaenia pelzelni;11207
Elaenia cristata;11208
Elaenia chiriquensis;11209
Elaenia ruficeps;11210
Elaenia obscura;11211
Elaenia dayi;11212
Elaenia olivina;11213
Suiriri suiriri;11216
Suiriri affinis;11217
Myiopagis gaimardii;11197
Myiopagis caniceps;11198
Myiopagis flavivertex;11199
Myiopagis viridicata;11200
Tyrannulus elatus;11196
Capsiempis flaveola;11225
Phaeomyias murina;11224
Phyllomyias virescens;11191
Phyllomyias reiseri;11192
Phyllomyias fasciatus;11193
Phyllomyias griseiceps;11194
Phyllomyias griseocapilla;11195
Mecocerculus leucophrys;11218
Culicivora caudacuta;11256
Polystictus pectoralis;11226
Polystictus superciliaris;11227
Pseudocolopteryx sclateri;11228
Pseudocolopteryx acutipennis;11229
Pseudocolopteryx dinelliana;11230
Pseudocolopteryx flaviventris;11231
Serpophaga hypoleuca;11219
Serpophaga nigricans;11220
Serpophaga subcristata;11221
Serpophaga griseicapilla;11222
Serpophaga munda;11223
Attila phoenicurus;11354
Attila cinnamomeus;11355
Attila citriniventris;11356
Attila bolivianus;11357
Attila rufus;11358
Attila spadiceus;11359
Legatus leucophaius;11322
Ramphotrigon megacephalum;11351
Ramphotrigon ruficauda;11352
Ramphotrigon fuscicauda;11353
Myiarchus tuberculifer;11347
Myiarchus swainsoni;11348
Myiarchus ferox;11349
Myiarchus tyrannulus;11350
Sirystes albocinereus;11986
Sirystes subcanescens;11987
Sirystes sibilator;11344
Rhytipterna simplex;11342
Rhytipterna immunda;11343
Casiornis rufus;11345
Casiornis fuscus;11346
Pitangus sulphuratus;11327
Philohydor lictor;11328
Machetornis rixosa;11321
Myiodynastes luteiventris;11331
Myiodynastes maculatus;11332
Tyrannopsis sulphurea;11334
Megarynchus pitangua;11333
Myiozetetes cayanensis;11323
Myiozetetes similis;11324
Myiozetetes granadensis;11325
Myiozetetes luteiventris;11326
Tyrannus albogularis;11337
Tyrannus melancholicus;11338
Tyrannus savana;11339
Tyrannus tyrannus;11340
Tyrannus dominicensis;11341
Griseotyrannus aurantioatrocristatus;11336
Empidonomus varius;11335
Conopias trivirgatus;11329
Conopias parvus;11330
Colonia colonus;11320
Myiophobus roraimae;11273
Myiophobus fasciatus;11274
Sublegatus obscurior;11250
Sublegatus modestus;11251
Pyrocephalus rubinus;11290
Fluvicola pica;11314
Fluvicola albiventer;11315
Fluvicola nengeta;11316
Arundinicola leucocephala;11317
Gubernetes yetapa;11312
Alectrurus tricolor;11318
Alectrurus risora;11319
Ochthornis littoralis;11303
Cnemotriccus fuscatus;11281
Lathrotriccus euleri;11280
Empidonax alnorum;11283
Contopus cooperi;11284
Contopus fumigatus;11285
Contopus virens;11286
Contopus cinereus;11287
Contopus albogularis;11288
Contopus nigrescens;11289
Lessonia rufa;11291
Knipolegus striaticeps;11292
Knipolegus hudsoni;11293
Knipolegus poecilocercus;11294
Knipolegus cyanirostris;11295
Knipolegus poecilurus;11296
Knipolegus orenocensis;11297
Knipolegus aterrimus;11298
Knipolegus franciscanus;11299
Knipolegus lophotes;11300
Knipolegus nigerrimus;11301
Hymenops perspicillatus;11302
Satrapa icterophrys;11304
Muscisaxicola fluviatilis;11305
Muscisaxicola maclovianus;11951
Xolmis cinereus;11306
Xolmis coronatus;11307
Xolmis velatus;11308
Xolmis irupero;11309
Xolmis rubetra;11952
Xolmis dominicanus;11310
Agriornis micropterus;11988
Agriornis murinus;11855
Neoxolmis rufiventris;11311
Muscipipra vetula;11313
Cyclarhis gujanensis;11451
Vireolanius leucotis;11452
Hylophilus amaurocephalus;11458
Hylophilus poicilotis;11457
Hylophilus pectoralis;11461
Hylophilus semicinereus;11460
Hylophilus brunneiceps;11463
Hylophilus thoracicus;11459
Tunchiornis ochraceiceps;11466
Pachysylvia hypoxantha;11464
Pachysylvia muscicapina;11465
Vireo sclateri;11462
Vireo olivaceus;11953
Vireo chivi;11453
Vireo gracilirostris;11454
Vireo flavoviridis;11455
Vireo altiloquus;11456
Cyanocorax violaceus;11467
Cyanocorax cyanomelas;11468
Cyanocorax caeruleus;11469
Cyanocorax cristatellus;11470
Cyanocorax cayanus;11471
Cyanocorax heilprini;11472
Cyanocorax hafferi;11954
Cyanocorax chrysops;11473
Cyanocorax cyanopogon;11474
Pygochelidon cyanoleuca;11482
Pygochelidon melanoleuca;11484
Alopochelidon fucata;11486
Atticora fasciata;11483
Atticora tibialis;11485
Stelgidopteryx ruficollis;11487
Progne tapera;11478
Progne subis;11479
Progne chalybea;11480
Progne elegans;11481
Tachycineta albiventer;11475
Tachycineta leucorrhoa;11476
Tachycineta leucopyga;11477
Riparia riparia;11488
Hirundo rustica;11489
Petrochelidon pyrrhonota;11490
Microcerculus marginatus;11491
Microcerculus ustulatus;11492
Microcerculus bambla;11493
Odontorchilus cinereus;11494
Troglodytes musculus;11495
Troglodytes rufulus;11496
Cistothorus platensis;11497
Campylorhynchus griseus;11498
Campylorhynchus turdinus;11499
Pheugopedius genibarbis;11500
Pheugopedius coraya;11501
Cantorchilus leucotis;11502
Cantorchilus guarayanus;11503
Cantorchilus longirostris;11504
Cantorchilus griseus;11505
Henicorhina leucosticta;11506
Cyphorhinus arada;11507
Donacobius atricapilla;11508
Microbates collaris;11509
Ramphocaenus melanurus;11510
Ramphocaenus sticturus;11989
Polioptila plumbea;11511
Polioptila lactea;11512
Polioptila guianensis;11513
Polioptila paraensis;11514
Polioptila attenboroughi;11955
Polioptila facilis;11515
Polioptila dumicola;11516
Catharus fuscescens;11517
Catharus minimus;11518
Catharus swainsoni;11519
Cichlopsis leucogenys;11520
Turdus iliacus;11956
Turdus leucops;11521
Turdus flavipes;11522
Turdus leucomelas;11525
Turdus fumigatus;11527
Turdus hauxwelli;11526
Turdus rufiventris;11523
Turdus nudigenis;11524
Turdus sanchezorum;11957
Turdus lawrencii;11528
Turdus amaurochalinus;11530
Turdus ignobilis;11529
Turdus olivater;11531
Turdus subalaris;11532
Turdus albicollis;11533
Mimus gilvus;11534
Mimus saturninus;11535
Mimus triurus;11536
Anthus lutescens;11537
Anthus furcatus;11538
Anthus correndera;11539
Anthus nattereri;11540
Anthus hellmayri;11541
Zonotrichia capensis;11629
Ammodramus humeralis;11630
Ammodramus aurifrons;11631
Arremonops conirostris;11687
Arremon taciturnus;11688
Arremon semitorquatus;11689
Arremon franciscanus;11690
Arremon flavirostris;11691
Atlapetes personatus;11692
Protonotaria citrea;11726
Parkesia noveboracensis;11727
Setophaga ruticilla;11725
Setophaga cerulea;11723
Setophaga pitiayumi;11719
Setophaga petechia;11720
Setophaga striata;11721
Setophaga fusca;11722
Setophaga virens;11724
Geothlypis aequinoctialis;11729
Cardellina canadensis;11730
Myioborus miniatus;11731
Myioborus castaneocapilla;11732
Basileuterus culicivorus;11734
Myiothlypis bivittata;11733
Myiothlypis flaveola;11736
Myiothlypis leucoblephara;11737
Myiothlypis leucophrys;11738
Myiothlypis fulvicauda;11739
Myiothlypis mesoleuca;11822
Myiothlypis rivularis;11740
Psarocolius angustifrons;11742
Psarocolius viridis;11743
Psarocolius decumanus;11744
Psarocolius bifasciatus;11745
Procacicus solitarius;11746
Cacicus chrysopterus;11747
Cacicus haemorrhous;11748
Cacicus oseryi;11749
Cacicus latirostris;11750
Cacicus cela;11751
Icterus cayanensis;11857
Icterus pyrrhopterus;11752
Icterus chrysocephalus;11753
Icterus nigrogularis;11755
Icterus jamacaii;11756
Icterus croconotus;11757
Macroagelaius imthurni;11758
Gymnomystax mexicanus;11759
Lampropsar tanagrinus;11760
Gnorimopsar chopi;11761
Anumara forbesi;11762
Amblyramphus holosericeus;11763
Agelasticus cyanopus;11764
Agelasticus thilius;11765
Chrysomus ruficapillus;11766
Chrysomus icterocephalus;11767
Xanthopsar flavus;11768
Pseudoleistes guirahuro;11769
Pseudoleistes virescens;11770
Agelaioides badius;11771
Agelaioides fringillarius;11772
Molothrus rufoaxillaris;11773
Molothrus oryzivorus;11774
Molothrus bonariensis;11775
Quiscalus lugubris;11776
Sturnella militaris;11777
Sturnella superciliaris;11778
Sturnella defilippii;11779
Sturnella magna;11780
Dolichonyx oryzivorus;11781
Lamprospiza melanoleuca;11550
Mitrospingus oleagineus;11554
Orthogonys chloricterus;11555
Rhopospina fruticeti;11633
Porphyrospiza caerulescens;11632
Parkerthraustes humeralis;11705
Orchesticus abeillei;11543
Pipraeidea melanonota;11588
Pipraeidea bonariensis;11585
Neothraupis fasciata;11547
Gubernatrix cristata;11697
Hedyglossa diuca;11634
Stephanophorus diadematus;11587
Cissopis leverianus;11546
Schistochlamys melanopis;11544
Schistochlamys ruficapillus;11545
Paroaria coronata;11698
Paroaria dominicana;11699
Paroaria baeri;11701
Paroaria xinguensis;11961
Paroaria gularis;11700
Paroaria cervicalis;11856
Paroaria capitata;11702
Tangara gyrola;11602
Tangara schrankii;11597
Tangara mexicana;11589
Tangara brasiliensis;11590
Tangara chilensis;11591
Tangara velia;11609
Tangara cyanomelas;11827
Tangara callophrys;11610
Tangara seledon;11593
Tangara fastuosa;11592
Tangara cyanocephala;11594
Tangara cyanoventris;11596
Tangara desmaresti;11595
Tangara varia;11601
Tangara punctata;11599
Tangara guttata;11600
Tangara xanthogastra;11598
Tangara episcopus;11580
Tangara sayaca;11581
Tangara cyanoptera;11582
Tangara palmarum;11584
Tangara ornata;11583
Tangara nigrocincta;11607
Tangara cyanicollis;11606
Tangara argentea;11608
Tangara peruviana;11604
Tangara preciosa;11605
Tangara cayana;11603
Nemosia pileata;11552
Nemosia rourei;11553
Cyanicterus cyanicterus;11586
Compsothraupis loricata;11551
Conirostrum speciosum;11624
Conirostrum bicolor;11625
Conirostrum margaritae;11626
Sicalis citrina;11642
Sicalis flaveola;11644
Sicalis columbiana;11643
Sicalis luteola;11645
Haplospiza unicolor;11635
Catamenia homochroa;11684
Diglossa duidae;11627
Diglossa major;11628
Chlorophanes spiza;11620
Hemithraupis flavicollis;11623
Hemithraupis guira;11621
Hemithraupis ruficapilla;11622
Conothraupis speculigera;11548
Conothraupis mesoleuca;11549
Volatinia jacarina;11650
Eucometis penicillata;11566
Trichothraupis melanops;11559
Coryphospingus pileatus;11695
Coryphospingus cucullatus;11696
Lanio surinamus;11570
Lanio versicolor;11576
Lanio fulvus;11575
Lanio luctuosus;11571
Lanio cristatus;11567
Lanio rufiventer;11569
Tachyphonus phoenicius;11574
Tachyphonus rufus;11573
Tachyphonus coronatus;11572
Ramphocelus nigrogularis;11577
Ramphocelus bresilius;11579
Ramphocelus carbo;11578
Charitospiza eucosma;11693
Tersina viridis;11611
Cyanerpes nitidus;11617
Cyanerpes caeruleus;11618
Cyanerpes cyaneus;11619
Dacnis albiventris;11612
Dacnis nigripes;11615
Dacnis flaviventer;11614
Dacnis cayana;11616
Dacnis lineata;11613
Coereba flaveola;11542
Tiaris obscurus;11685
Tiaris fuliginosus;11686
Sporophila lineola;11660
Sporophila frontalis;11651
Sporophila falcirostris;11652
Sporophila schistacea;11653
Sporophila intermedia;11654
Sporophila plumbea;11655
Sporophila beltoni;11962
Sporophila americana;11656
Sporophila murallae;11657
Sporophila collaris;11658
Sporophila bouvronides;11659
Sporophila luctuosa;11661
Sporophila nigricollis;11662
Sporophila ardesiaca;11663
Sporophila caerulescens;11665
Sporophila albogularis;11666
Sporophila leucoptera;11667
Sporophila nigrorufa;11668
Sporophila bouvreuil;11669
Sporophila pileata;11963
Sporophila minuta;11670
Sporophila hypoxantha;11671
Sporophila ruficollis;11672
Sporophila palustris;11673
Sporophila castaneiventris;11674
Sporophila hypochroma;11675
Sporophila cinnamomea;11676
Sporophila melanogaster;11678
Sporophila angolensis;11679
Sporophila crassirostris;11680
Sporophila maximiliani;11681
Dolospingus fringilloides;11683
Coryphaspiza melanotis;11694
Embernagra platensis;11648
Embernagra longicauda;11649
Emberizoides herbicola;11646
Emberizoides ypiranganus;11647
Saltatricula atricollis;11714
Saltatricula multicolor;11959
Saltator maximus;11709
Saltator coerulescens;11710
Saltator similis;11711
Saltator maxillosus;11712
Saltator aurantiirostris;11713
Saltator grossus;11707
Saltator fuliginosus;11708
Poospiza nigrorufa;11638
Poospiza thoracica;11637
Microspingus lateralis;11639
Microspingus cabanisi;11821
Microspingus melanoleucus;11640
Microspingus cinereus;11641
Thlypopsis sordida;11556
Pyrrhocoma ruficeps;11557
Cypsnagra hirundinacea;11558
Donacospiza albifrons;11636
Piranga flava;11560
Piranga lutea;11561
Piranga rubra;11562
Piranga olivacea;11563
Piranga leucoptera;11564
Habia rubra;11565
Habia rubica;11990
Pheucticus aureoventris;11703
Granatellus pelzelni;11741
Caryothraustes canadensis;11704
Periporphyrus erythromelas;11706
Amaurospiza moesta;11682
Cyanoloxia rothschildii;11716
Cyanoloxia glaucocaerulea;11715
Cyanoloxia brissonii;11717
Spiza americana;11718
Chloris chloris;11782
Carduelis carduelis;11783
Spinus yarrellii;11784
Spinus magellanicus;11785
Euphonia plumbea;11786
Euphonia chlorotica;11787
Euphonia finschi;11788
Euphonia violacea;11789
Euphonia laniirostris;11790
Euphonia chalybea;11791
Euphonia cyanocephala;11792
Euphonia chrysopasta;11793
Euphonia minuta;11794
Euphonia xanthogaster;11795
Euphonia rufiventris;11796
Euphonia cayennensis;11797
Euphonia pectoralis;11798
Chlorophonia cyanea;11799
Estrilda astrild;11800
Passer domesticus;11801
